{
    "$schema": "https://themost-framework.github.io/themost/models/2018/2/schema.json",
    "@id": "http://schema.org/EventType",
    "name": "EventType",
    "description": "EventType is an enumeration type whose instances represent types of Events.",
    "title": "EventType",
    "abstract": false,
    "sealed": false,
    "implements": "Enumeration",
    "version": "1.0",
    "fields": [
        {
            "@id": "https://themost.io/schemas/id",
            "name": "id",
            "title": "id",
            "description": "The identifier of the item.",
            "type": "Counter",
            "primary": true
        },
        {
            "name": "canBelongTo",
            "description": "Μπορεί να ανήκει σε άλλο γεγονός (ΝΑΙ/ΟΧΙ)",
            "type": "Boolean",
            "value": "javascript:return false;"
        }
    ],
    "privileges": [
        {
            "mask": 1,
            "type": "global",
            "account": "*"
        },
        {
            "mask": 15,
            "type": "global"
        },
        {
            "mask": 15,
            "type": "global",
            "account": "Administrators"
        }
    ],
    "constraints": [
        {
            "type": "unique",
            "fields": [
                "alternateName"
            ]
        }
    ],
    "seed": [
        {
            "name": "Γεγονός διδασκαλίας",
            "alternateName": "TeachingEvent",
            "description": "Γεγονός διδασκαλίας μιας τάξης.",
            "canBelongTo": true
        },
        {
            "name": "Γεγονός εξέτασης",
            "alternateName": "ExamEvent",
            "description": "Γεγονός εξέτασης ενός μαθήματος.",
            "canBelongTo": true
        }
    ]
}
